{
"user": [
	{
		"username" : "Allen",
		"password" : "$2a$12$xFzxn.ihJrDiRlE2a\/qOs.4NcswdTStqfleLpgbkC9fJmvLcWNCR2",
		"email" : null,
		"created_at" : "2022-03-13T09:39:08.834Z",
		"updated_at" : "2022-03-13T09:39:08.834Z"
	}
]}
